[
    {
        "org_name": "MASAS NIT",
        "name": "Manitoba Highway",
        "uri": "https://access.masas-sics.ca/accounts/user/66/",
        "org_department": "",
        "groups": [
            {
                "name": "MASAS NIT",
                "uri": "https://access.masas-sics.ca/accounts/group/1"
            }
        ],
        "contact_name": "Jacob Westfall"
    },
    {
        "org_name": "MASAS NIT",
        "name": "MASAS NIT - Jacob Westfall",
        "uri": "https://access.masas-sics.ca/accounts/user/1/",
        "org_department": "",
        "groups": [
            {
                "name": "MASAS NIT",
                "uri": "https://access.masas-sics.ca/accounts/group/1"
            }
        ],
        "contact_name": "Jacob Westfall"
    }
]
